{
  "id": "http://zenopzanalytics.com/schemata/json/monitor_logs#",
  "$schema": "http://json-schema.org/draft-04/schema#",
  "type": "object",
  "definitions": {},
  "additionalProperties": false,
  "properties": {
    "@timestamp": {
      "type": "string",
      "title": "TBD",
      "default": ""
    },
    "@version": {
      "type": "string",
      "title": "TBD",
      "default": ""
    },
    "beat": {
      "type": "object",
      "properties": {
        "hostname": {
          "type": "string",
          "title": "TBD",
          "default": ""
        },
        "name": {
          "type": "string",
          "title": "TBD",
          "default": ""
        },
        "version": {
          "type": "string",
          "title": "TBD",
          "default": ""
        }
      }
    },
    "fields": {
      "type": "object",
      "properties": {
        "monitor-address": {
          "type": "string",
          "title": "TBD",
          "default": ""
        },
        "pass": {
          "type": "long",
          "title": "TBD",
          "default": ""
        }
      }
    },
    "host": {
      "type": "string",
      "title": "TBD",
      "default": ""
    },
    "msg": {
      "type": "string",
      "title": "TBD",
      "default": ""
    },
    "offset": {
      "type": "long",
      "title": "TBD",
      "default": ""
    },
    "program": {
      "type": "string",
      "title": "TBD",
      "default": ""
    },
    "source": {
      "type": "string",
      "title": "TBD",
      "default": ""
    },
    "syslog_hostname": {
      "type": "string",
      "title": "TBD",
      "default": ""
    },
    "syslog_pid": {
      "type": "string",
      "title": "TBD",
      "default": ""
    },
    "syslog_timestamp": {
      "type": "string",
      "title": "TBD",
      "default": ""
    },
    "tags": {
      "type": "array",
      "items": {
        "type": "string",
        "title": "TBD",
        "default": ""
      }
    },
    "type": {
      "type": "string",
      "title": "TBD",
      "default": ""
    },
    "zo_msg_src": {
      "type": "string",
      "title": "TBD",
      "default": ""
    }
  },
  "required": []
}
