{
  "id": "http://zenopzanalytics.com/schemata/json/scan_results#",
  "$schema": "http://json-schema.org/draft-04/schema#",
  "type": "object",
  "definitions": {},
  "additionalProperties": false,
  "properties": {
    "@timestamp": {
      "type": "string",
      "title": "TBD",
      "default": ""
    },
    "@version": {
      "type": "string",
      "title": "TBD",
      "default": ""
    },
    "CVSS": {
      "type": "string",
      "title": "TBD",
      "default": ""
    },
    "False Positive": {
      "type": "string",
      "title": "TBD",
      "default": ""
    },
    "High": {
      "type": "string",
      "title": "TBD",
      "default": ""
    },
    "Hostname": {
      "type": "string",
      "title": "TBD",
      "default": ""
    },
    "IP": {
      "type": "string",
      "title": "TBD",
      "default": ""
    },
    "Log": {
      "type": "string",
      "title": "TBD",
      "default": ""
    },
    "Low": {
      "type": "string",
      "title": "TBD",
      "default": ""
    },
    "Medium": {
      "type": "string",
      "title": "TBD",
      "default": ""
    },
    "OS": {
      "type": "string",
      "title": "TBD",
      "default": ""
    },
    "Scan End": {
      "type": "string",
      "title": "TBD",
      "default": ""
    },
    "Scan Start": {
      "type": "string",
      "title": "TBD",
      "default": ""
    },
    "Severity": {
      "type": "string",
      "title": "TBD",
      "default": ""
    },
    "Total": {
      "type": "string",
      "title": "TBD",
      "default": ""
    },
    "beat": {
      "type": "object",
      "properties": {
        "hostname": {
          "type": "string",
          "title": "TBD",
          "default": ""
        },
        "name": {
          "type": "string",
          "title": "TBD",
          "default": ""
        },
        "version": {
          "type": "string",
          "title": "TBD",
          "default": ""
        }
      }
    },
    "fields": {
      "type": "object",
      "properties": {
        "monitor-address": {
          "type": "string",
          "title": "TBD",
          "default": ""
        },
        "pass": {
          "type": "long",
          "title": "TBD",
          "default": ""
        }
      }
    },
    "host": {
      "type": "string",
      "title": "TBD",
      "default": ""
    },
    "offset": {
      "type": "long",
      "title": "TBD",
      "default": ""
    },
    "openvas": {
      "type": "string",
      "title": "TBD",
      "default": ""
    },
    "tags": {
      "type": "array",
      "items": {
        "type": "string",
        "title": "TBD",
        "default": ""
      }
    },
    "type": {
      "type": "string",
      "title": "TBD",
      "default": ""
    },
    "zo_msg_src": {
      "type": "string",
      "title": "TBD",
      "default": ""
    }
  },
  "required": []
}
